…
-   had an arrival delay of two or more hours;
-   flew to IAH or HOU;
-   were operated by UA, AA, DL;
-   departed in July, August and September;
-   arrived more than two hours late, but didn’t leave late;
-   were delayed by at least an hour, but made up over 30 minutes in
    flight.

<!-- -->

    flights |>
     filter(arr_delay >= 120)

    ## # A tibble: 10,200 × 19
    ##     year month   day dep_time sched_dep_time dep_delay arr_time sched_arr_time
    ##    <int> <int> <int>    <int>          <int>     <dbl>    <int>          <int>
    ##  1  2013     1     1      811            630       101     1047            830
    ##  2  2013     1     1      848           1835       853     1001           1950
    ##  3  2013     1     1      957            733       144     1056            853
    ##  4  2013     1     1     1114            900       134     1447           1222
    ##  5  2013     1     1     1505           1310       115     1638           1431
    ##  6  2013     1     1     1525           1340       105     1831           1626
    ##  7  2013     1     1     1549           1445        64     1912           1656
    ##  8  2013     1     1     1558           1359       119     1718           1515
    ##  9  2013     1     1     1732           1630        62     2028           1825
    ## 10  2013     1     1     1803           1620       103     2008           1750
    ## # ℹ 10,190 more rows
    ## # ℹ 11 more variables: arr_delay <dbl>, carrier <chr>, flight <int>,
    ## #   tailnum <chr>, origin <chr>, dest <chr>, air_time <dbl>, distance <dbl>,
    ## #   hour <dbl>, minute <dbl>, time_hour <dttm>

    flights |>
      filter(dest %in% c("IAH", "HOU"))

    ## # A tibble: 9,313 × 19
    ##     year month   day dep_time sched_dep_time dep_delay arr_time sched_arr_time
    ##    <int> <int> <int>    <int>          <int>     <dbl>    <int>          <int>
    ##  1  2013     1     1      517            515         2      830            819
    ##  2  2013     1     1      533            529         4      850            830
    ##  3  2013     1     1      623            627        -4      933            932
    ##  4  2013     1     1      728            732        -4     1041           1038
    ##  5  2013     1     1      739            739         0     1104           1038
    ##  6  2013     1     1      908            908         0     1228           1219
    ##  7  2013     1     1     1028           1026         2     1350           1339
    ##  8  2013     1     1     1044           1045        -1     1352           1351
    ##  9  2013     1     1     1114            900       134     1447           1222
    ## 10  2013     1     1     1205           1200         5     1503           1505
    ## # ℹ 9,303 more rows
    ## # ℹ 11 more variables: arr_delay <dbl>, carrier <chr>, flight <int>,
    ## #   tailnum <chr>, origin <chr>, dest <chr>, air_time <dbl>, distance <dbl>,
    ## #   hour <dbl>, minute <dbl>, time_hour <dttm>

    flights |> 
      filter(carrier %in% c("UA", "AA", "DL"))

    ## # A tibble: 139,504 × 19
    ##     year month   day dep_time sched_dep_time dep_delay arr_time sched_arr_time
    ##    <int> <int> <int>    <int>          <int>     <dbl>    <int>          <int>
    ##  1  2013     1     1      517            515         2      830            819
    ##  2  2013     1     1      533            529         4      850            830
    ##  3  2013     1     1      542            540         2      923            850
    ##  4  2013     1     1      554            600        -6      812            837
    ##  5  2013     1     1      554            558        -4      740            728
    ##  6  2013     1     1      558            600        -2      753            745
    ##  7  2013     1     1      558            600        -2      924            917
    ##  8  2013     1     1      558            600        -2      923            937
    ##  9  2013     1     1      559            600        -1      941            910
    ## 10  2013     1     1      559            600        -1      854            902
    ## # ℹ 139,494 more rows
    ## # ℹ 11 more variables: arr_delay <dbl>, carrier <chr>, flight <int>,
    ## #   tailnum <chr>, origin <chr>, dest <chr>, air_time <dbl>, distance <dbl>,
    ## #   hour <dbl>, minute <dbl>, time_hour <dttm>

    flights |> 
      filter(month %in% c(7:9))

    ## # A tibble: 86,326 × 19
    ##     year month   day dep_time sched_dep_time dep_delay arr_time sched_arr_time
    ##    <int> <int> <int>    <int>          <int>     <dbl>    <int>          <int>
    ##  1  2013     7     1        1           2029       212      236           2359
    ##  2  2013     7     1        2           2359         3      344            344
    ##  3  2013     7     1       29           2245       104      151              1
    ##  4  2013     7     1       43           2130       193      322             14
    ##  5  2013     7     1       44           2150       174      300            100
    ##  6  2013     7     1       46           2051       235      304           2358
    ##  7  2013     7     1       48           2001       287      308           2305
    ##  8  2013     7     1       58           2155       183      335             43
    ##  9  2013     7     1      100           2146       194      327             30
    ## 10  2013     7     1      100           2245       135      337            135
    ## # ℹ 86,316 more rows
    ## # ℹ 11 more variables: arr_delay <dbl>, carrier <chr>, flight <int>,
    ## #   tailnum <chr>, origin <chr>, dest <chr>, air_time <dbl>, distance <dbl>,
    ## #   hour <dbl>, minute <dbl>, time_hour <dttm>

    flights |> 
      filter(arr_delay >= 120 & dep_delay <=0)

    ## # A tibble: 29 × 19
    ##     year month   day dep_time sched_dep_time dep_delay arr_time sched_arr_time
    ##    <int> <int> <int>    <int>          <int>     <dbl>    <int>          <int>
    ##  1  2013     1    27     1419           1420        -1     1754           1550
    ##  2  2013    10     7     1350           1350         0     1736           1526
    ##  3  2013    10     7     1357           1359        -2     1858           1654
    ##  4  2013    10    16      657            700        -3     1258           1056
    ##  5  2013    11     1      658            700        -2     1329           1015
    ##  6  2013     3    18     1844           1847        -3       39           2219
    ##  7  2013     4    17     1635           1640        -5     2049           1845
    ##  8  2013     4    18      558            600        -2     1149            850
    ##  9  2013     4    18      655            700        -5     1213            950
    ## 10  2013     5    22     1827           1830        -3     2217           2010
    ## # ℹ 19 more rows
    ## # ℹ 11 more variables: arr_delay <dbl>, carrier <chr>, flight <int>,
    ## #   tailnum <chr>, origin <chr>, dest <chr>, air_time <dbl>, distance <dbl>,
    ## #   hour <dbl>, minute <dbl>, time_hour <dttm>

    flights |> 
      filter(dep_delay >= 60 & dep_delay - arr_delay > 30)

    ## # A tibble: 1,844 × 19
    ##     year month   day dep_time sched_dep_time dep_delay arr_time sched_arr_time
    ##    <int> <int> <int>    <int>          <int>     <dbl>    <int>          <int>
    ##  1  2013     1     1     2205           1720       285       46           2040
    ##  2  2013     1     1     2326           2130       116      131             18
    ##  3  2013     1     3     1503           1221       162     1803           1555
    ##  4  2013     1     3     1839           1700        99     2056           1950
    ##  5  2013     1     3     1850           1745        65     2148           2120
    ##  6  2013     1     3     1941           1759       102     2246           2139
    ##  7  2013     1     3     1950           1845        65     2228           2227
    ##  8  2013     1     3     2015           1915        60     2135           2111
    ##  9  2013     1     3     2257           2000       177       45           2224
    ## 10  2013     1     4     1917           1700       137     2135           1950
    ## # ℹ 1,834 more rows
    ## # ℹ 11 more variables: arr_delay <dbl>, carrier <chr>, flight <int>,
    ## #   tailnum <chr>, origin <chr>, dest <chr>, air_time <dbl>, distance <dbl>,
    ## #   hour <dbl>, minute <dbl>, time_hour <dttm>

**2. Sort flights to find the flights with the longest departure delays.
Find the flights that left earliest in the morning, too.**

    #departure delays
    flights |>
      arrange(desc(dep_delay))

    ## # A tibble: 336,776 × 19
    ##     year month   day dep_time sched_dep_time dep_delay arr_time sched_arr_time
    ##    <int> <int> <int>    <int>          <int>     <dbl>    <int>          <int>
    ##  1  2013     1     9      641            900      1301     1242           1530
    ##  2  2013     6    15     1432           1935      1137     1607           2120
    ##  3  2013     1    10     1121           1635      1126     1239           1810
    ##  4  2013     9    20     1139           1845      1014     1457           2210
    ##  5  2013     7    22      845           1600      1005     1044           1815
    ##  6  2013     4    10     1100           1900       960     1342           2211
    ##  7  2013     3    17     2321            810       911      135           1020
    ##  8  2013     6    27      959           1900       899     1236           2226
    ##  9  2013     7    22     2257            759       898      121           1026
    ## 10  2013    12     5      756           1700       896     1058           2020
    ## # ℹ 336,766 more rows
    ## # ℹ 11 more variables: arr_delay <dbl>, carrier <chr>, flight <int>,
    ## #   tailnum <chr>, origin <chr>, dest <chr>, air_time <dbl>, distance <dbl>,
    ## #   hour <dbl>, minute <dbl>, time_hour <dttm>

    #earliest in the AM
    flights |>
      arrange(sched_dep_time)

    ## # A tibble: 336,776 × 19
    ##     year month   day dep_time sched_dep_time dep_delay arr_time sched_arr_time
    ##    <int> <int> <int>    <int>          <int>     <dbl>    <int>          <int>
    ##  1  2013     7    27       NA            106        NA       NA            245
    ##  2  2013     1     2      458            500        -2      703            650
    ##  3  2013     1     3      458            500        -2      650            650
    ##  4  2013     1     4      456            500        -4      631            650
    ##  5  2013     1     5      458            500        -2      640            650
    ##  6  2013     1     6      458            500        -2      718            650
    ##  7  2013     1     7      454            500        -6      637            648
    ##  8  2013     1     8      454            500        -6      625            648
    ##  9  2013     1     9      457            500        -3      647            648
    ## 10  2013     1    10      450            500       -10      634            648
    ## # ℹ 336,766 more rows
    ## # ℹ 11 more variables: arr_delay <dbl>, carrier <chr>, flight <int>,
    ## #   tailnum <chr>, origin <chr>, dest <chr>, air_time <dbl>, distance <dbl>,
    ## #   hour <dbl>, minute <dbl>, time_hour <dttm>

**3. Sort flights to find the fastest flights.**

    flights |>
      mutate(speed = distance/(air_time/60)) |>
      arrange(desc(speed)) |>
      relocate(speed)

    ## # A tibble: 336,776 × 20
    ##    speed  year month   day dep_time sched_dep_time dep_delay arr_time
    ##    <dbl> <int> <int> <int>    <int>          <int>     <dbl>    <int>
    ##  1  703.  2013     5    25     1709           1700         9     1923
    ##  2  650.  2013     7     2     1558           1513        45     1745
    ##  3  648   2013     5    13     2040           2025        15     2225
    ##  4  641.  2013     3    23     1914           1910         4     2045
    ##  5  591.  2013     1    12     1559           1600        -1     1849
    ##  6  564   2013    11    17      650            655        -5     1059
    ##  7  557.  2013     2    21     2355           2358        -3      412
    ##  8  556.  2013    11    17      759            800        -1     1212
    ##  9  554.  2013    11    16     2003           1925        38       17
    ## 10  554.  2013    11    16     2349           2359       -10      402
    ## # ℹ 336,766 more rows
    ## # ℹ 12 more variables: sched_arr_time <int>, arr_delay <dbl>, carrier <chr>,
    ## #   flight <int>, tailnum <chr>, origin <chr>, dest <chr>, air_time <dbl>,
    ## #   distance <dbl>, hour <dbl>, minute <dbl>, time_hour <dttm>
…
## 3.3.5 Exercises

**1. Compare `dep_time`, `sched_dep_time`, and `dep_delay`. How would
you expect these to be related?**

The difference between scheduled departure time and actual departure
time represents the calculated delay.

**2. Brainstorm ways to select `dep_time`, `dep_delay`, `arr_time` and
`arr_delay` from flights.**

    flights |>
      select(c(dep_time, dep_delay, arr_time, arr_delay))

    ## # A tibble: 336,776 × 4
    ##    dep_time dep_delay arr_time arr_delay
    ##       <int>     <dbl>    <int>     <dbl>
    ##  1      517         2      830        11
    ##  2      533         4      850        20
    ##  3      542         2      923        33
    ##  4      544        -1     1004       -18
    ##  5      554        -6      812       -25
    ##  6      554        -4      740        12
    ##  7      555        -5      913        19
    ##  8      557        -3      709       -14
    ##  9      557        -3      838        -8
    ## 10      558        -2      753         8
    ## # ℹ 336,766 more rows

    flights |>
      select(starts_with("dep_") | starts_with("arr_"))

    ## # A tibble: 336,776 × 4
    ##    dep_time dep_delay arr_time arr_delay
    ##       <int>     <dbl>    <int>     <dbl>
    ##  1      517         2      830        11
    ##  2      533         4      850        20
    ##  3      542         2      923        33
    ##  4      544        -1     1004       -18
    ##  5      554        -6      812       -25
    ##  6      554        -4      740        12
    ##  7      555        -5      913        19
    ##  8      557        -3      709       -14
    ##  9      557        -3      838        -8
    ## 10      558        -2      753         8
    ## # ℹ 336,766 more rows
…
Example:

    flights |>
      select(any_of(variables))

**5. Does the result of running the following code surprise? How do the
select helpers deal with upper and lower case by default? Can you change
the default?**

    flights |> select(contains("TIME"))

    ## # A tibble: 336,776 × 6
    ##    dep_time sched_dep_time arr_time sched_arr_time air_time time_hour          
    ##       <int>          <int>    <int>          <int>    <dbl> <dttm>             
    ##  1      517            515      830            819      227 2013-01-01 05:00:00
    ##  2      533            529      850            830      227 2013-01-01 05:00:00
    ##  3      542            540      923            850      160 2013-01-01 05:00:00
    ##  4      544            545     1004           1022      183 2013-01-01 05:00:00
    ##  5      554            600      812            837      116 2013-01-01 06:00:00
    ##  6      554            558      740            728      150 2013-01-01 05:00:00
    ##  7      555            600      913            854      158 2013-01-01 06:00:00
    ##  8      557            600      709            723       53 2013-01-01 06:00:00
    ##  9      557            600      838            846      140 2013-01-01 06:00:00
    ## 10      558            600      753            745      138 2013-01-01 06:00:00
    ## # ℹ 336,766 more rows
…
Frontier Airlines (F9) has the worst delays.

**2. Find the flights that are most delayed upon departure from each
destination.**

    flights |>
      group_by(dest) |>
      slice_max(dep_delay, n=1, with_ties = FALSE) |>
      relocate(dest)

    ## # A tibble: 105 × 19
    ## # Groups:   dest [105]
    ##    dest   year month   day dep_time sched_dep_time dep_delay arr_time
    ##    <chr> <int> <int> <int>    <int>          <int>     <dbl>    <int>
    ##  1 ABQ    2013    12    14     2223           2001       142      133
    ##  2 ACK    2013     7    23     1139            800       219     1250
    ##  3 ALB    2013     1    25      123           2000       323      229
    ##  4 ANC    2013     8    17     1740           1625        75     2042
    ##  5 ATL    2013     7    22     2257            759       898      121
    ##  6 AUS    2013     7    10     2056           1505       351     2347
    ##  7 AVL    2013     6    14     1158            816       222     1335
    ##  8 BDL    2013     2    21     1728           1316       252     1839
    ##  9 BGR    2013    12     1     1504           1056       248     1628
    ## 10 BHM    2013     4    10       25           1900       325      136
    ## # ℹ 95 more rows
    ## # ℹ 11 more variables: sched_arr_time <int>, arr_delay <dbl>, carrier <chr>,
    ## #   flight <int>, tailnum <chr>, origin <chr>, air_time <dbl>, distance <dbl>,
    ## #   hour <dbl>, minute <dbl>, time_hour <dttm>
…
Here’s the tidy code:

    flights |>
      filter(dest == "IAH") |>
      group_by(year, month, day) |>
      summarize(
        n = n(),
        delay = mean(arr_delay,na.rm=TRUE)
        ) |> 
      filter(n>10)

    ## `summarise()` has grouped output by 'year', 'month'. You can override using the
    ## `.groups` argument.

    ## # A tibble: 365 × 5
    ## # Groups:   year, month [12]
    ##     year month   day     n delay
    ##    <int> <int> <int> <int> <dbl>
    ##  1  2013     1     1    20 17.8 
    ##  2  2013     1     2    20  7   
    ##  3  2013     1     3    19 18.3 
    ##  4  2013     1     4    20 -3.2 
    ##  5  2013     1     5    13 20.2 
    ##  6  2013     1     6    18  9.28
    ##  7  2013     1     7    19 -7.74
    ##  8  2013     1     8    19  7.79
    ##  9  2013     1     9    19 18.1 
    ## 10  2013     1    10    19  6.68
    ## # ℹ 355 more rows

    flights |> 
      filter(
        carrier == "UA",
        dest %in% c("IAH","HOU"),
        sched_dep_time > 0900,
        sched_arr_time < 2000
        ) |>
      group_by(flight) |>
      summarize(
        delay = mean(arr_delay,na.rm=TRUE),
        cancelled = sum(is.na(arr_delay)),n=n()) |>
      filter(n>10)

    ## # A tibble: 74 × 4
    ##    flight delay cancelled     n
    ##     <int> <dbl>     <int> <int>
    ##  1     53 12.5          2    18
    ##  2    112 14.1          0    14
    ##  3    205 -1.71         0    14
    ##  4    235 -5.36         0    14
    ##  5    255 -9.47         0    15
    ##  6    268 38.6          1    15
    ##  7    292  6.57         0    21
    ##  8    318 10.7          1    20
    ##  9    337 20.1          2    21
    ## 10    370 17.5          0    11
    ## # ℹ 64 more rows
…
