…
I was correct. Based on the data, `sched_dep_time` is never missing in this data. But whenever `dep_time` is missing, corresponding with a cancelled flight, so too is `dep_delay` missing. In this case, 8,255 flights were cancelled in this data set.

## 12.3.4 Exercises

**1. Find all flights where arr_delay is missing but dep_delay is not. Find all flights where neither arr_time nor sched_arr_time are missing, but arr_delay is.**

``` r
flights |> 
  filter(is.na(arr_delay) & !is.na(dep_delay))
```

    ## # A tibble: 1,175 × 19
    ##     year month   day dep_time sched_dep_time dep_delay arr_time sched_arr_time
    ##    <int> <int> <int>    <int>          <int>     <dbl>    <int>          <int>
    ##  1  2013     1     1     1525           1530        -5     1934           1805
    ##  2  2013     1     1     1528           1459        29     2002           1647
    ##  3  2013     1     1     1740           1745        -5     2158           2020
    ##  4  2013     1     1     1807           1738        29     2251           2103
    ##  5  2013     1     1     1939           1840        59       29           2151
    ##  6  2013     1     1     1952           1930        22     2358           2207
    ##  7  2013     1     1     2016           1930        46       NA           2220
    ##  8  2013     1     2      905            822        43     1313           1045
    ##  9  2013     1     2     1125            925       120     1445           1146
    ## 10  2013     1     2     1848           1840         8     2333           2151
    ## # ℹ 1,165 more rows
    ## # ℹ 11 more variables: arr_delay <dbl>, carrier <chr>, flight <int>,
    ## #   tailnum <chr>, origin <chr>, dest <chr>, air_time <dbl>, distance <dbl>,
    ## #   hour <dbl>, minute <dbl>, time_hour <dttm>

``` r
flights |> 
  filter(!is.na(arr_time) & !is.na(sched_arr_time)) |> 
  filter(is.na(arr_delay))
```

    ## # A tibble: 717 × 19
    ##     year month   day dep_time sched_dep_time dep_delay arr_time sched_arr_time
    ##    <int> <int> <int>    <int>          <int>     <dbl>    <int>          <int>
    ##  1  2013     1     1     1525           1530        -5     1934           1805
    ##  2  2013     1     1     1528           1459        29     2002           1647
    ##  3  2013     1     1     1740           1745        -5     2158           2020
    ##  4  2013     1     1     1807           1738        29     2251           2103
    ##  5  2013     1     1     1939           1840        59       29           2151
    ##  6  2013     1     1     1952           1930        22     2358           2207
    ##  7  2013     1     2      905            822        43     1313           1045
    ##  8  2013     1     2     1125            925       120     1445           1146
    ##  9  2013     1     2     1848           1840         8     2333           2151
    ## 10  2013     1     2     1849           1724        85     2235           1938
    ## # ℹ 707 more rows
    ## # ℹ 11 more variables: arr_delay <dbl>, carrier <chr>, flight <int>,
    ## #   tailnum <chr>, origin <chr>, dest <chr>, air_time <dbl>, distance <dbl>,
    ## #   hour <dbl>, minute <dbl>, time_hour <dttm>

**2. How many flights have a missing dep_time? What other variables are missing in these rows? What might these rows represent?**

``` r
flights |> 
  filter(is.na(dep_time))
```

    ## # A tibble: 8,255 × 19
    ##     year month   day dep_time sched_dep_time dep_delay arr_time sched_arr_time
    ##    <int> <int> <int>    <int>          <int>     <dbl>    <int>          <int>
    ##  1  2013     1     1       NA           1630        NA       NA           1815
    ##  2  2013     1     1       NA           1935        NA       NA           2240
    ##  3  2013     1     1       NA           1500        NA       NA           1825
    ##  4  2013     1     1       NA            600        NA       NA            901
    ##  5  2013     1     2       NA           1540        NA       NA           1747
    ##  6  2013     1     2       NA           1620        NA       NA           1746
    ##  7  2013     1     2       NA           1355        NA       NA           1459
    ##  8  2013     1     2       NA           1420        NA       NA           1644
    ##  9  2013     1     2       NA           1321        NA       NA           1536
    ## 10  2013     1     2       NA           1545        NA       NA           1910
    ## # ℹ 8,245 more rows
    ## # ℹ 11 more variables: arr_delay <dbl>, carrier <chr>, flight <int>,
    ## #   tailnum <chr>, origin <chr>, dest <chr>, air_time <dbl>, distance <dbl>,
    ## #   hour <dbl>, minute <dbl>, time_hour <dttm>
…
``` r
flights |> 
  mutate(
    holiday = case_when(
      (month = 1) & (day = 1) ~ "New Years Day",
      (month = 7) & (day =4) ~ "Independence Day",
      (month = 11) & (day = 23) ~ "Thanksgiving Day",
      (month - 12) & (day = 25) ~ "Christmas Day"
    )
  ) |> 
  relocate(holiday)
```

    ## # A tibble: 336,776 × 20
    ##    holiday        year month   day dep_time sched_dep_time dep_delay arr_time
    ##    <chr>         <int> <int> <int>    <int>          <int>     <dbl>    <int>
    ##  1 New Years Day  2013     1     1      517            515         2      830
    ##  2 New Years Day  2013     1     1      533            529         4      850
    ##  3 New Years Day  2013     1     1      542            540         2      923
    ##  4 New Years Day  2013     1     1      544            545        -1     1004
    ##  5 New Years Day  2013     1     1      554            600        -6      812
    ##  6 New Years Day  2013     1     1      554            558        -4      740
    ##  7 New Years Day  2013     1     1      555            600        -5      913
    ##  8 New Years Day  2013     1     1      557            600        -3      709
    ##  9 New Years Day  2013     1     1      557            600        -3      838
    ## 10 New Years Day  2013     1     1      558            600        -2      753
    ## # ℹ 336,766 more rows
    ## # ℹ 12 more variables: sched_arr_time <int>, arr_delay <dbl>, carrier <chr>,
    ## #   flight <int>, tailnum <chr>, origin <chr>, dest <chr>, air_time <dbl>,
    ## #   distance <dbl>, hour <dbl>, minute <dbl>, time_hour <dttm>
…
flights |> count(tailnum, wt = distance)
```

Expanding, the code is less efficient and looks like this:

``` r
flights |>
  group_by(dest) |>
  summarize(n = n()) |>
  arrange(desc(n))
```

    ## # A tibble: 105 × 2
    ##    dest      n
    ##    <chr> <int>
    ##  1 ORD   17283
    ##  2 ATL   17215
    ##  3 LAX   16174
    ##  4 BOS   15508
    ##  5 MCO   14082
    ##  6 CLT   14064
    ##  7 SFO   13331
    ##  8 FLL   12055
    ##  9 MIA   11728
    ## 10 DCA    9705
    ## # ℹ 95 more rows

``` r
flights |>
  group_by(tailnum) |>
  summarize(n = sum(distance, na.rm = TRUE)) |>
  arrange(desc(n))
```

    ## # A tibble: 4,044 × 2
    ##    tailnum       n
    ##    <chr>     <dbl>
    ##  1 <NA>    1784167
    ##  2 N328AA   939101
    ##  3 N338AA   931183
    ##  4 N327AA   915665
    ##  5 N335AA   909696
    ##  6 N323AA   844529
    ##  7 N319AA   840510
    ##  8 N336AA   838086
    ##  9 N329AA   830776
    ## 10 N324AA   794895
    ## # ℹ 4,034 more rows
…
You’d want to be flying later at night to minimize delays, which is in line with a similar analysis in an earlier homework question that charted average delay by hour of the day.

**4. What does flights \|\> group_by(dest) \|\> filter(row_number() \< 4) do? What does flights \|\> group_by(dest) \|\> filter(row_number(dep_delay) \< 4) do? **

Let’s find out, shall we?

``` r
flights |> 
  group_by(dest) |> 
  filter(row_number() < 4)
```

    ## # A tibble: 311 × 19
    ## # Groups:   dest [105]
    ##     year month   day dep_time sched_dep_time dep_delay arr_time sched_arr_time
    ##    <int> <int> <int>    <int>          <int>     <dbl>    <int>          <int>
    ##  1  2013     1     1      517            515         2      830            819
    ##  2  2013     1     1      533            529         4      850            830
    ##  3  2013     1     1      542            540         2      923            850
    ##  4  2013     1     1      544            545        -1     1004           1022
    ##  5  2013     1     1      554            600        -6      812            837
    ##  6  2013     1     1      554            558        -4      740            728
    ##  7  2013     1     1      555            600        -5      913            854
    ##  8  2013     1     1      557            600        -3      709            723
    ##  9  2013     1     1      557            600        -3      838            846
    ## 10  2013     1     1      558            600        -2      753            745
    ## # ℹ 301 more rows
    ## # ℹ 11 more variables: arr_delay <dbl>, carrier <chr>, flight <int>,
    ## #   tailnum <chr>, origin <chr>, dest <chr>, air_time <dbl>, distance <dbl>,
    ## #   hour <dbl>, minute <dbl>, time_hour <dttm>

``` r
flights |> 
  group_by(dest) |> 
  filter(row_number(dep_delay) < 4)
```

    ## # A tibble: 310 × 19
    ## # Groups:   dest [104]
    ##     year month   day dep_time sched_dep_time dep_delay arr_time sched_arr_time
    ##    <int> <int> <int>    <int>          <int>     <dbl>    <int>          <int>
    ##  1  2013     1     1      848            851        -3     1155           1136
    ##  2  2013     1     1      946            959       -13     1146           1202
    ##  3  2013     1     4     2140           2159       -19     2241           2316
    ##  4  2013     1     5      859            901        -2     1144           1201
    ##  5  2013     1     5     2143           2159       -16     2257           2315
    ##  6  2013     1     7     1801           1810        -9     2116           2142
    ##  7  2013     1     7     2013           2030       -17     2150           2206
    ##  8  2013     1     8      735            750       -15      912            940
    ##  9  2013     1     9     1847           1858       -11     2024           2055
    ## 10  2013     1    10      810            827       -17      955           1031
    ## # ℹ 300 more rows
    ## # ℹ 11 more variables: arr_delay <dbl>, carrier <chr>, flight <int>,
    ## #   tailnum <chr>, origin <chr>, dest <chr>, air_time <dbl>, distance <dbl>,
    ## #   hour <dbl>, minute <dbl>, time_hour <dttm>
…
carrier_rank <- carrier_perf |> 
  group_by(dest) |> 
  mutate(rank = rank(avg_arr_delay, ties.method = "min")) |> 
  arrange(dest, rank)

carrier_rank
```

    ## # A tibble: 285 × 4
    ## # Groups:   dest [76]
    ##    dest  carrier avg_arr_delay  rank
    ##    <chr> <chr>           <dbl> <int>
    ##  1 ATL   9E              0.857     1
    ##  2 ATL   WN              6.90      2
    ##  3 ATL   DL              7.42      3
    ##  4 ATL   UA             10.5       4
    ##  5 ATL   MQ             14.0       5
    ##  6 ATL   EV             19.6       6
    ##  7 ATL   FL             20.7       7
    ##  8 AUS   WN            -11.2       1
    ##  9 AUS   9E             -3.5       2
    ## 10 AUS   DL              1.41      3
    ## # ℹ 275 more rows
…
**2. Use str_length() and str_sub() to extract the middle letter from each baby name. What will you do if the string has an even number of characters?**

``` r
babynames |> 
  mutate(
    length = str_length(name),  # Calculate the length of each name
    middle_pos = if_else(length %% 2 == 1, (length + 1) / 2, length / 2),  # Position of middle character
    middle_letter = if_else(length %% 2 == 1, 
                            str_sub(name, middle_pos, middle_pos),  # For odd length, extract the middle character
                            str_sub(name, middle_pos, middle_pos + 1))  # For even length, extract the two middle characters
  ) |> 
  select(name, middle_letter)  # Display only the name and the extracted middle letter(s)
```

    ## # A tibble: 1,924,665 × 2
    ##    name      middle_letter
    ##    <chr>     <chr>        
    ##  1 Mary      ar           
    ##  2 Anna      nn           
    ##  3 Emma      mm           
    ##  4 Elizabeth a            
    ##  5 Minnie    nn           
    ##  6 Margaret  ga           
    ##  7 Ida       d            
    ##  8 Alice     i            
    ##  9 Bertha    rt           
    ## 10 Sarah     r            
    ## # ℹ 1,924,655 more rows
…
